Capstone Project
…
# Join them into a total month summary table
mmyyyy_summary <- full_join(NPI_bydate, NPK_bydate, by = "Unique")

# Create a full date column including the month and year
mmyyyy_summary$day.x <- 1L
mmyyyy_summary <- unite(mmyyyy_summary, "FullDate",
                               c("year.x", "month.x", "day.x"), sep = "-")
mmyyyy_summary$FullDate <- as.Date(mmyyyy_summary$FullDate, format = "%Y-%m-%d")

rm(NPI_bydate, NPK_bydate)
mmyyyy_summary

## # A tibble: 300 x 8
##      FullDate     borough.x avgTotalInjury             Unique year.y
##  *     <date>         <chr>          <dbl>              <chr>  <dbl>
##  1 2013-01-01         BRONX       1.392971         20131BRONX   2013
##  2 2013-01-01      BROOKLYN       1.317690      20131BROOKLYN   2013
##  3 2013-01-01     MANHATTAN       1.183369     20131MANHATTAN   2013
##  4 2013-01-01        QUEENS       1.318328        20131QUEENS   2013
##  5 2013-01-01 STATEN ISLAND       1.304348 20131STATEN ISLAND     NA
##  6 2013-02-01         BRONX       1.392857         20132BRONX   2013
##  7 2013-02-01      BROOKLYN       1.349640      20132BROOKLYN   2013
##  8 2013-02-01     MANHATTAN       1.220183     20132MANHATTAN   2013
##  9 2013-02-01        QUEENS       1.300000        20132QUEENS   2013
## 10 2013-02-01 STATEN ISLAND       1.453704 20132STATEN ISLAND   2013
## # ... with 290 more rows, and 3 more variables: month.y <dbl>,
## #   borough.y <chr>, avgTotalKilled <dbl>
…
